{
  "objects": [
    {
      "center": {
        "x": 0,
        "y": 6371200,
        "z": 0
      },
      "velocity": {
        "x": 0,
        "y": 0,
        "z": 7000
      },
      "mass": 80,
      "name": "person"
    },
    {
      "center": {
        "x": 0,
        "y": 0,
        "z": 0
      },
      "velocity": {
        "x": 0,
        "y": 0,
        "z": 0
      },
      "mass": 5.97237e+24,
      "name": "earth"
    }
  ],
  "seconds": 10000,
  "write_interval": 1
}

